
{
    "epl":
    [
        {
            "eventId":"123123123",
            "score":"3-2",
            "winner":"manu"
           
        },
        {
            "eventId":"12313123",
            "score":"3-2",
            "winner":"chelsea"
           
        },
        {
            "eventId":"13131",
            "score":"3-2",
            "winner":"manu"
           
        },
        {
            "eventId":"13131",
            "score":"3-2",
            "winner":"manu"
           
        }
    ]
      
}